…
# preview
study_df
```

    ## # A tibble: 160 x 4
    ##    arm        id week  observation
    ##    <chr>   <int> <chr>       <dbl>
    ##  1 control     1 1            0.2 
    ##  2 control     1 2           -1.31
    ##  3 control     1 3            0.66
    ##  4 control     1 4            1.96
    ##  5 control     1 5            0.23
    ##  6 control     1 6            1.09
    ##  7 control     1 7            0.05
    ##  8 control     1 8            1.94
    ##  9 control     2 1            1.13
    ## 10 control     2 2           -0.88
    ## # … with 150 more rows
…
Check results.

``` r
res %>% unnest(data)
```

    ## # A tibble: 35,000 x 6
    ##       mu mu_hat p_value rej_prop avg_estimate avg_rejected
    ##    <int>  <dbl>   <dbl>    <dbl>        <dbl>        <dbl>
    ##  1     0  0.144   0.823    0.055       0.0183       -0.117
    ##  2     0  0.463   0.667    0.055       0.0183       -0.117
    ##  3     0 -0.219   0.827    0.055       0.0183       -0.117
    ##  4     0 -0.375   0.680    0.055       0.0183       -0.117
    ##  5     0 -0.796   0.259    0.055       0.0183       -0.117
    ##  6     0  0.838   0.240    0.055       0.0183       -0.117
    ##  7     0 -0.358   0.688    0.055       0.0183       -0.117
    ##  8     0 -0.546   0.505    0.055       0.0183       -0.117
    ##  9     0  0.323   0.779    0.055       0.0183       -0.117
    ## 10     0  0.974   0.247    0.055       0.0183       -0.117
    ## # … with 34,990 more rows
…
